[api-updater (non-obsolete-error-filter)] 1/12/2021 11:05:57 PM : Starting /Applications/Unity/Hub/Editor/2020.2.1f1/Unity.app/Contents/Tools/ScriptUpdater/APIUpdater.NonObsoleteApiUpdaterDetector.exe
[api-updater (non-obsolete-error-filter)] 
----------------------------------
jit/startup time      : 148.519ms
moved types parse time: 70ms
candidates parse time : 1ms
C# parse time         : 322ms
candidates check time : 37ms
console write time    : 1ms

[api-updater (non-obsolete-error-filter)] 1/12/2021 11:19:33 PM : Starting /Applications/Unity/Hub/Editor/2020.2.1f1/Unity.app/Contents/Tools/ScriptUpdater/APIUpdater.NonObsoleteApiUpdaterDetector.exe
[api-updater (non-obsolete-error-filter)] 
----------------------------------
jit/startup time      : 129.529ms
moved types parse time: 60ms
candidates parse time : 1ms
C# parse time         : 284ms
candidates check time : 41ms
console write time    : 0ms

[api-updater (non-obsolete-error-filter)] 1/12/2021 11:54:45 PM : Starting /Applications/Unity/Hub/Editor/2020.2.1f1/Unity.app/Contents/Tools/ScriptUpdater/APIUpdater.NonObsoleteApiUpdaterDetector.exe
[api-updater (non-obsolete-error-filter)] 
----------------------------------
jit/startup time      : 130.626ms
moved types parse time: 65ms
candidates parse time : 1ms
C# parse time         : 295ms
candidates check time : 45ms
console write time    : 0ms

[api-updater (non-obsolete-error-filter)] 1/12/2021 11:55:32 PM : Starting /Applications/Unity/Hub/Editor/2020.2.1f1/Unity.app/Contents/Tools/ScriptUpdater/APIUpdater.NonObsoleteApiUpdaterDetector.exe
[api-updater (non-obsolete-error-filter)] 
----------------------------------
jit/startup time      : 61.498ms
moved types parse time: 56ms
candidates parse time : 1ms
C# parse time         : 232ms
candidates check time : 40ms
console write time    : 0ms

[api-updater (non-obsolete-error-filter)] 1/12/2021 11:55:49 PM : Starting /Applications/Unity/Hub/Editor/2020.2.1f1/Unity.app/Contents/Tools/ScriptUpdater/APIUpdater.NonObsoleteApiUpdaterDetector.exe
[api-updater (non-obsolete-error-filter)] 
----------------------------------
jit/startup time      : 57.848ms
moved types parse time: 53ms
candidates parse time : 1ms
C# parse time         : 248ms
candidates check time : 42ms
console write time    : 0ms

[api-updater (non-obsolete-error-filter)] 1/12/2021 11:56:16 PM : Starting /Applications/Unity/Hub/Editor/2020.2.1f1/Unity.app/Contents/Tools/ScriptUpdater/APIUpdater.NonObsoleteApiUpdaterDetector.exe
[api-updater (non-obsolete-error-filter)] 
----------------------------------
jit/startup time      : 57.151ms
moved types parse time: 53ms
candidates parse time : 1ms
C# parse time         : 263ms
candidates check time : 40ms
console write time    : 0ms

[api-updater (non-obsolete-error-filter)] 1/13/2021 2:10:05 PM : Starting /Applications/Unity/Hub/Editor/2020.2.1f1/Unity.app/Contents/Tools/ScriptUpdater/APIUpdater.NonObsoleteApiUpdaterDetector.exe
[api-updater (non-obsolete-error-filter)] 
----------------------------------
jit/startup time      : 140.965ms
moved types parse time: 64ms
candidates parse time : 2ms
C# parse time         : 294ms
candidates check time : 36ms
console write time    : 0ms

[api-updater (non-obsolete-error-filter)] 1/13/2021 6:56:26 PM : Starting /Applications/Unity/Hub/Editor/2020.2.1f1/Unity.app/Contents/Tools/ScriptUpdater/APIUpdater.NonObsoleteApiUpdaterDetector.exe
[api-updater (non-obsolete-error-filter)] 
----------------------------------
jit/startup time      : 151.908ms
moved types parse time: 54ms
candidates parse time : 1ms
C# parse time         : 295ms
candidates check time : 33ms
console write time    : 1ms

[api-updater (non-obsolete-error-filter)] 1/13/2021 7:00:36 PM : Starting /Applications/Unity/Hub/Editor/2020.2.1f1/Unity.app/Contents/Tools/ScriptUpdater/APIUpdater.NonObsoleteApiUpdaterDetector.exe
[api-updater (non-obsolete-error-filter)] 
----------------------------------
jit/startup time      : 118.503ms
moved types parse time: 50ms
candidates parse time : 1ms
C# parse time         : 233ms
candidates check time : 24ms
console write time    : 0ms

[api-updater (non-obsolete-error-filter)] 1/13/2021 7:01:02 PM : Starting /Applications/Unity/Hub/Editor/2020.2.1f1/Unity.app/Contents/Tools/ScriptUpdater/APIUpdater.NonObsoleteApiUpdaterDetector.exe
[api-updater (non-obsolete-error-filter)] 
----------------------------------
jit/startup time      : 52.616ms
moved types parse time: 46ms
candidates parse time : 1ms
C# parse time         : 211ms
candidates check time : 28ms
console write time    : 0ms

[api-updater (non-obsolete-error-filter)] 1/13/2021 9:16:35 PM : Starting /Applications/Unity/Hub/Editor/2020.2.1f1/Unity.app/Contents/Tools/ScriptUpdater/APIUpdater.NonObsoleteApiUpdaterDetector.exe
[api-updater (non-obsolete-error-filter)] 
----------------------------------
jit/startup time      : 160.888ms
moved types parse time: 64ms
candidates parse time : 1ms
C# parse time         : 286ms
candidates check time : 47ms
console write time    : 0ms

[api-updater (non-obsolete-error-filter)] 1/14/2021 1:56:58 PM : Starting /Applications/Unity/Hub/Editor/2020.2.1f1/Unity.app/Contents/Tools/ScriptUpdater/APIUpdater.NonObsoleteApiUpdaterDetector.exe
[api-updater (non-obsolete-error-filter)] 
----------------------------------
jit/startup time      : 135.887ms
moved types parse time: 65ms
candidates parse time : 1ms
C# parse time         : 247ms
candidates check time : 36ms
console write time    : 0ms

[api-updater (non-obsolete-error-filter)] 1/14/2021 4:53:03 PM : Starting /Applications/Unity/Hub/Editor/2020.2.1f1/Unity.app/Contents/Tools/ScriptUpdater/APIUpdater.NonObsoleteApiUpdaterDetector.exe
[api-updater (non-obsolete-error-filter)] 
----------------------------------
jit/startup time      : 129.489ms
moved types parse time: 60ms
candidates parse time : 1ms
C# parse time         : 254ms
candidates check time : 34ms
console write time    : 0ms

[api-updater (non-obsolete-error-filter)] 1/14/2021 4:54:08 PM : Starting /Applications/Unity/Hub/Editor/2020.2.1f1/Unity.app/Contents/Tools/ScriptUpdater/APIUpdater.NonObsoleteApiUpdaterDetector.exe
[api-updater (non-obsolete-error-filter)] 
----------------------------------
jit/startup time      : 55.325ms
moved types parse time: 46ms
candidates parse time : 1ms
C# parse time         : 199ms
candidates check time : 36ms
console write time    : 0ms

